C:\Users\DLAMOREE\Documents\ERP\calpass\API\MMAP\IdentityServer
--output-path=obj\Any CPU\Release\netcoreapp2.0\
--application-name=IdentityServer
--content-root=C:\Users\DLAMOREE\Documents\ERP\calpass\API\MMAP\IdentityServer
--file=
