




-- ,(?=[^"]*"[^"]*(?:"[^"]*"[^"]*)*$)
120403,00125100,001251,Otis College of Art and Design,Los Angeles,CA,90045-3505,,,,3,,1,1,3,4,2,6,8,,,,,,,,,,,,,,,,,,0.559,0.559,440,550,440,580,,,495,510,,19,24,20,24,17,21,,,22,22,19,,1005,1005,0,0,0.04,0,0,0,0,0,0,0,0,0,0,0,0,0,0,0,0,0,0,0,0,0,0,0,0,0,0,0,0,0,0,0,0.96,0,0,0,0,0,0,0,0,0,0,0,0,0,0,0,0,0,1,0,0,0,0,0,0,0,0,0,0,0,0,0,0,0,0,0,0,0,0,0,0,0,0,0,0,0,0,0,0,0,0,0,0,0,0,0,0,0,0,0,0,0,0,0,0,0,0,0,0,0,0,0,0,0,0,0,0,0,1,0,0,0,0,0,0,0,0,0,0,0,0,0,0,0,0,0,0,0,0,0,0,0,0,0,0,0,0,0,0,0,0,0,0,0,0,0,0,0,0,0,0,0,0,0,0,0,0,0,0,0,0,0,0,0,0,0,0,0,0,0,0,0,0,0,0,0,0,0,0,0,0,0,0,0,0,0,0,0,0,0,0,0,0,0,0,0,0,0,0,0,0,0,0,0,0,0,0,0,1,0,0,0,0,0,0,0,0,0,0,0,0,0,0,0,,1069,,,,,,,,,0.1254,0.1038,0.3255,0.0281,0.275,0.0075,0.1347,,,,,,,,0.0122,,,,,,,,,,,,,,,,,,,,,,,,,,,,,,,,,,,,,,,,,,,,,,,,,,,,,,,,,,,,,,,,,27546,27546,,20161,10981,5973,0.1979,,0.4511,,,,,0.5062893081761,133,,,,,,,,,,,0.5,0.8,0.3673,0.5,0.4706,,0.5,,,,,,,,,,,,,,,,,,,0.8,,,,,,,,,,,0.029,,,,,,0.212765957,,,0.578723404,0.068085106,,,,,,,,,0.256,,,0.552,,,,,,,,,,,,,0.542372881,,,,,,,,,,,,,0.68627451,,,,,,,,,,0.186813187,,,0.615384615,,,,,,,,,,0.301886793,,,0.452830189,,,,,,,,,,0.211538462,,,0.564102564,,,,,,,,,,0.215189873,,,0.607594937,,,,,,,,,,0.205298013,,,0.609271523,,,,,,,,,,0.226190476,,,0.523809524,,,,,,,,,,,,,,,,,,,,,,,,,,,,,,,,,,,,0.297297297,,,0.486486487,,,,,,,,,,0.173913044,,,0.621118012,,,,,,,0.267782427,,,0.464435146,,0.041841004,0.09623431,0.046025105,,,,,,0.239316239,,,0.487179487,,,,,,,,,,0.356164384,,,0.424657534,,,,,,,,,,0.204081633,,,0.469387755,,,,,,,,,,0.284090909,,,0.4375,,,,,,,,,,0.222222222,,,0.53968254,,,,,,,,,,0.253333333,,,0.433333333,,,,,,,,,,0.292134832,,,0.516853933,,,,,,,,,,0.292207792,,,0.435064935,,,,,,,,,,0.223529412,,,0.517647059,,,,,,,,,,,,,,,,,,,,,,,,,,,,,,,,,,,,0.298245614,,,0.421052632,,,,,,,,,,0.258241758,,,0.478021978,,,,,,,,,,0.447698745,,,0.259414226,,0.079497908,,0.050209205,,,,,,0.41025641,,,0.299145299,,,,,,,,,,0.506666667,,,0.213333333,,,,,,,,,,0.446808511,,,0.234042553,,,,,,,,,,0.414893617,,,,,,,,,,,,,0.568627451,,,,,,,,,,,,,0.395973154,,,0.255033557,,,,,,,,,,0.533333333,,,0.266666667,,,,,,,,,,0.424242424,,,0.296969697,,,,,,,,,,0.5,,,0.175675676,,,,,,,,,,,,,,,,,,,,,,,,,,,,,,,,,,,,0.416666667,,,0.291666667,,,,,,,,,,0.461077844,,,0.245508982,,,,,,,,,,0.447115385,,,0.240384615,0.072115385,0.081730769,,,,0.057692308,,,,0.381355932,,,0.313559322,,,,,,,,,,0.5,,,,,,,,,,,,,0.578947368,,,,,,,,,,,,,0.483221477,,,0.201342282,,,,,,,,,,0.355932203,,,0.338983051,,,,,,,,,,0.495867769,,,0.214876033,,,,,,,,,,0.379310345,,,0.275862069,,,,,,,,,,0.478873239,,,0.26056338,,,,,,,,,,0.378787879,,,0.196969697,,,,,,,,,,,,,,,,,,,,,,,,,,,,,,,,,,,,0.411764706,,,0.308823529,,,,,,,,,,0.464285714,,,0.207142857,,,,,,,,,,0.441489362,0.063829787,,0.218085106,0.079787234,0.106382979,,,,,,,,0.436893204,,,0.262135922,,,,,,,,,,,,,,,,,,,,,,,,,,,,,,,,,,,,0.4375,,,0.1875,,,,,,,,,,0.45,,,0.283333333,,,,,,,,,,0.475728155,,,0.203883495,,,,,,,,,,0.4,,,0.235294118,,,,,,,,,,0.533980583,,,0.203883495,,,,,,,,,,0.329411765,,,0.235294118,,,,,,,,,,,,,,,,,,,,,,,,,,,,,,,,,,,,0.345454546,,,0.236363636,,,,,,,,,,0.481203008,,,0.210526316,,,,,,,,,,,,,,,,,,,,,,,,,,,,,,,,,,,,,,,,,,,,,,,,,,,,,,,,,,,,,,,,,0.403960396,0.2099009901,0.2932330827,0.820754717,0.2721382289,0.1346534653,0.1722772277,0.1128712871,0.1762376238,,,,,,,,,0.030237581,0.2419006479,0.7278617711,0.5306930693,0.3643564356,0.2594059406,0.2059405941,62437.629073,14517.028302,235,125,59,51,182,53,156,79,151,84,223,12,74,161,239,117,73,49,176,63,150,89,154,85,,,57,182,239,117,75,47,188,51,149,90,165,74,229,10,72,167,208,118,52,38,149,59,121,87,142,66,,,68,140,188,103,66,19,128,60,103,85,103,85,,,55,133,17125,21125,11125,19312.5,17125,14500,14500,28500,19187.5,14374,14500,18812.5,17125,17125,475,179,296,238,138,99,362,113,308,167,297,178,115,360,,475,33796,26250,6625,2625,505,399,106,505,463,505,,05/05/2009,,469,,,,,,,,,,,,,,,,,,,,,,,,,,,,,,,,,,,,,,,,,,,,,,,,,,,,,,,,,,0.9287128713,0.6693069307,21.916831683,,,0.6871287129,0.0277227723,0.7900990099,,0.2721382289,52379.047525,35460,14517.028302,,,,,,,,,,,,,,,,,,,,,,,,,,,,,,,,,,,,,,,,,,,,,,,,,,,,,,,,,,,,,,,,,,,,,,,,41,269,47300,37600,0.728624522686,,,,,,,,,,,39,286,51700,37700,0.72727274894714,17125,21125,,,,,,,,,,,,,,,,,,,,"Otis Art Institute, Otis Parsons, Otis/Parsons",0.33834586466165,133,,,0,133,,,1,0.334,0.666,,302,,,,,,,,,16,5,49,6,51,0,6,,,,,,,,,,,,,,,,2,4,52,,,,,,,,,,,,,,,,,,,,,,,,,,,,,